<?xml version="1.0" encoding="UTF-8"?>
<svg width="48px" height="48px" viewBox="0 0 48 48" version="1.1" xmlns="http://www.w3.org/2000/svg" xmlns:xlink="http://www.w3.org/1999/xlink">
    <!-- Generator: Sketch 55.2 (78181) - https://sketchapp.com -->
    <title>hdpi/proximity</title>
    <desc>Created with Sketch.</desc>
    <defs>
        <polygon id="path-1" points="0.9233 0.9687 5.82 0.9687 5.82 3.1427 0.9233 3.1427"></polygon>
        <polygon id="path-3" points="0.9233 0.1455 5.82 0.1455 5.82 2.3195 0.9233 2.3195"></polygon>
        <polygon id="path-5" points="0.9233 0.3222 5.82 0.3222 5.82 2.4962 0.9233 2.4962"></polygon>
        <polygon id="path-7" points="0.9233 0.4844 5.82 0.4844 5.82 2.6594 0.9233 2.6594"></polygon>
        <polygon id="path-9" points="0 0.5046 4.8966 0.5046 4.8966 2.6806 0 2.6806"></polygon>
        <polygon id="path-11" points="0 0.3279 4.8966 0.3279 4.8966 2.5039 0 2.5039"></polygon>
        <polygon id="path-13" points="0 0.1363 4.8966 0.1363 4.8966 2.3403 0 2.3403"></polygon>
        <polygon id="path-15" points="0 0.9595 4.8966 0.9595 4.8966 3.1635 0 3.1635"></polygon>
        <polygon id="path-17" points="0.5843 0.1184 2.7583 0.1184 2.7583 5 0.5843 5"></polygon>
        <polygon id="path-19" points="0.3929 0.1184 2.5669 0.1184 2.5669 5 0.3929 5"></polygon>
        <polygon id="path-21" points="0.2445 0.1184 2.4195 0.1184 2.4195 5 0.2445 5"></polygon>
        <polygon id="path-23" points="0.0966 0.1184 2.2576 0.1184 2.2576 5 0.0966 5"></polygon>
    </defs>
    <g id="切切" stroke="none" stroke-width="1" fill="none" fill-rule="evenodd">
        <g id="History-1" transform="translate(-359.000000, -568.000000)">
            <g id="proximity-copy" transform="translate(365.000000, 574.000000)">
                <path d="M25.897,6.9996 L9.924,6.9996 C8.44,6.9996 7.244,8.2086 7.244,9.6776 L7.244,25.7086 C7.244,27.2216 8.44,28.4166 9.924,28.4166 L25.897,28.4166 C27.379,28.4166 28.575,27.2216 28.575,25.7086 L28.575,12.9756 L28.575,10.8016 L28.575,9.6776 C28.575,8.2086 27.379,6.9996 25.897,6.9996" id="Fill-1" fill="#FFFFFF"></path>
                <g id="Group-5" transform="translate(30.000000, 9.833100)">
                    <mask id="mask-2" fill="white">
                        <use xlink:href="#path-1"></use>
                    </mask>
                    <g id="Clip-4"></g>
                    <path d="M4.7403,0.9687 L0.9233,0.9687 L0.9233,3.1427 L4.7403,3.1427 C5.3593,3.1427 5.8203,2.6677 5.8203,2.0777 C5.8203,1.4727 5.3593,0.9687 4.7403,0.9687" id="Fill-3" fill="#FFFFFF" mask="url(#mask-2)"></path>
                </g>
                <g id="Group-8" transform="translate(30.000000, 14.833100)">
                    <mask id="mask-4" fill="white">
                        <use xlink:href="#path-3"></use>
                    </mask>
                    <g id="Clip-7"></g>
                    <path d="M4.7403,0.1455 L0.9233,0.1455 L0.9233,2.3195 L4.7403,2.3195 C5.3593,2.3195 5.8203,1.8445 5.8203,1.2395 C5.8203,0.6205 5.3593,0.1455 4.7403,0.1455" id="Fill-6" fill="#FFFFFF" mask="url(#mask-4)"></path>
                </g>
                <g id="Group-11" transform="translate(30.000000, 18.833100)">
                    <mask id="mask-6" fill="white">
                        <use xlink:href="#path-5"></use>
                    </mask>
                    <g id="Clip-10"></g>
                    <path d="M4.7403,0.3222 L0.9233,0.3222 L0.9233,2.4962 L4.7403,2.4962 C5.3593,2.4962 5.8203,2.0072 5.8203,1.4162 C5.8203,0.7972 5.3593,0.3222 4.7403,0.3222" id="Fill-9" fill="#FFFFFF" mask="url(#mask-6)"></path>
                </g>
                <g id="Group-14" transform="translate(30.000000, 22.833100)">
                    <mask id="mask-8" fill="white">
                        <use xlink:href="#path-7"></use>
                    </mask>
                    <g id="Clip-13"></g>
                    <path d="M4.7403,0.4844 L0.9233,0.4844 L0.9233,2.6594 L4.7403,2.6594 C5.3593,2.6594 5.8203,2.1554 5.8203,1.5654 C5.8203,0.9884 5.3593,0.4844 4.7403,0.4844" id="Fill-12" fill="#FFFFFF" mask="url(#mask-8)"></path>
                </g>
                <g id="Group-17" transform="translate(0.000000, 21.833100)">
                    <mask id="mask-10" fill="white">
                        <use xlink:href="#path-9"></use>
                    </mask>
                    <g id="Clip-16"></g>
                    <path d="M1.0796,2.6806 L4.8966,2.6806 L4.8966,0.5046 L1.0796,0.5046 C0.5046,0.5046 -0.0004,0.9796 -0.0004,1.5716 C-0.0004,2.1766 0.5046,2.6806 1.0796,2.6806" id="Fill-15" fill="#FFFFFF" mask="url(#mask-10)"></path>
                </g>
                <g id="Group-20" transform="translate(0.000000, 17.833100)">
                    <mask id="mask-12" fill="white">
                        <use xlink:href="#path-11"></use>
                    </mask>
                    <g id="Clip-19"></g>
                    <path d="M1.0796,2.5039 L4.8966,2.5039 L4.8966,0.3279 L1.0796,0.3279 C0.5046,0.3279 -0.0004,0.8329 -0.0004,1.4079 C-0.0004,2.0269 0.5046,2.5039 1.0796,2.5039" id="Fill-18" fill="#FFFFFF" mask="url(#mask-12)"></path>
                </g>
                <g id="Group-23" transform="translate(0.000000, 13.833100)">
                    <mask id="mask-14" fill="white">
                        <use xlink:href="#path-13"></use>
                    </mask>
                    <g id="Clip-22"></g>
                    <path d="M1.0796,2.3403 L4.8966,2.3403 L4.8966,0.1363 L1.0796,0.1363 C0.5046,0.1363 -0.0004,0.6133 -0.0004,1.2603 C-0.0004,1.8653 0.5046,2.3403 1.0796,2.3403" id="Fill-21" fill="#FFFFFF" mask="url(#mask-14)"></path>
                </g>
                <g id="Group-26" transform="translate(0.000000, 8.833100)">
                    <mask id="mask-16" fill="white">
                        <use xlink:href="#path-15"></use>
                    </mask>
                    <g id="Clip-25"></g>
                    <path d="M1.0796,3.1635 L4.8966,3.1635 L4.8966,0.9595 L1.0796,0.9595 C0.5046,0.9595 -0.0004,1.4645 -0.0004,2.0685 C-0.0004,2.6885 0.5046,3.1635 1.0796,3.1635" id="Fill-24" fill="#FFFFFF" mask="url(#mask-16)"></path>
                </g>
                <path d="M11.032,1.0943 L11.032,4.9113 L13.237,4.9113 L13.237,1.0943 C13.237,0.5033 12.761,0.0003 12.156,0.0003 C11.536,0.0003 11.032,0.5033 11.032,1.0943" id="Fill-27" fill="#FFFFFF"></path>
                <path d="M15.2234,1.0943 L15.2234,4.9113 L17.4264,4.9113 L17.4264,1.0943 C17.4264,0.5033 16.9234,0.0003 16.3044,0.0003 C15.7284,0.0003 15.2234,0.5033 15.2234,1.0943" id="Fill-29" fill="#FFFFFF"></path>
                <path d="M19.4004,1.0943 L19.4004,4.9113 L21.6034,4.9113 L21.6034,1.0943 C21.6034,0.5033 21.1004,0.0003 20.4964,0.0003 C19.8764,0.0003 19.4004,0.5033 19.4004,1.0943" id="Fill-31" fill="#FFFFFF"></path>
                <path d="M23.5638,1.0943 L23.5638,4.9113 L25.7378,4.9113 L25.7378,1.0943 C25.7378,0.5033 25.2908,0.0003 24.6728,0.0003 C24.0538,0.0003 23.5638,0.5033 23.5638,1.0943" id="Fill-33" fill="#FFFFFF"></path>
                <g id="Group-37" transform="translate(22.000000, 30.833100)">
                    <mask id="mask-18" fill="white">
                        <use xlink:href="#path-17"></use>
                    </mask>
                    <g id="Clip-36"></g>
                    <path d="M2.7583,3.9204 L2.7583,0.1184 L0.5843,0.1184 L0.5843,3.9204 C0.5843,4.4974 1.0593,5.0004 1.6643,5.0004 C2.2833,5.0004 2.7583,4.4974 2.7583,3.9204" id="Fill-35" fill="#FFFFFF" mask="url(#mask-18)"></path>
                </g>
                <g id="Group-40" transform="translate(18.000000, 30.833100)">
                    <mask id="mask-20" fill="white">
                        <use xlink:href="#path-19"></use>
                    </mask>
                    <g id="Clip-39"></g>
                    <path d="M2.5669,3.9204 L2.5669,0.1184 L0.3929,0.1184 L0.3929,3.9204 C0.3929,4.4974 0.8969,5.0004 1.5149,5.0004 C2.0919,5.0004 2.5669,4.4974 2.5669,3.9204" id="Fill-38" fill="#FFFFFF" mask="url(#mask-20)"></path>
                </g>
                <g id="Group-43" transform="translate(14.000000, 30.833100)">
                    <mask id="mask-22" fill="white">
                        <use xlink:href="#path-21"></use>
                    </mask>
                    <g id="Clip-42"></g>
                    <path d="M2.4195,3.9204 L2.4195,0.1184 L0.2445,0.1184 L0.2445,3.9204 C0.2445,4.4974 0.7195,5.0004 1.3255,5.0004 C1.9445,5.0004 2.4195,4.4974 2.4195,3.9204" id="Fill-41" fill="#FFFFFF" mask="url(#mask-22)"></path>
                </g>
                <g id="Group-46" transform="translate(10.000000, 30.833100)">
                    <mask id="mask-24" fill="white">
                        <use xlink:href="#path-23"></use>
                    </mask>
                    <g id="Clip-45"></g>
                    <path d="M2.2576,3.9204 L2.2576,0.1184 L0.0966,0.1184 L0.0966,3.9204 C0.0966,4.4974 0.5566,5.0004 1.1766,5.0004 C1.7676,5.0004 2.2576,4.4974 2.2576,3.9204" id="Fill-44" fill="#FFFFFF" mask="url(#mask-24)"></path>
                </g>
            </g>
        </g>
    </g>
</svg>