<?xml version="1.0" encoding="UTF-8"?>
<svg width="192px" height="192px" viewBox="0 0 192 192" version="1.1" xmlns="http://www.w3.org/2000/svg" xmlns:xlink="http://www.w3.org/1999/xlink">
    <!-- Generator: Sketch 55.2 (78181) - https://sketchapp.com -->
    <title>xxxhdpi/add_photo</title>
    <desc>Created with Sketch.</desc>
    <defs>
        <polygon id="path-1" points="0 0.180378378 70.4776383 0.180378378 70.4776383 56.6444777 0 56.6444777"></polygon>
        <polygon id="path-3" points="0.161602106 0.93784587 31.6894545 0.93784587 31.6894545 32.9997757 0.161602106 32.9997757"></polygon>
    </defs>
    <g id="切切" stroke="none" stroke-width="1" fill="none" fill-rule="evenodd">
        <g id="History-1" transform="translate(-83.000000, -727.000000)">
            <g id="Group" transform="translate(89.000000, 737.000000)">
                <circle id="Oval" stroke="#979797" fill="#D8D8D8" opacity="0.09" cx="87" cy="87" r="87"></circle>
                <circle id="Oval-Copy-3" stroke="#3DD3B6" stroke-width="3" cx="88" cy="88" r="87"></circle>
                <circle id="Oval-Copy" stroke="#979797" fill="#D8D8D8" opacity="0.09" cx="87.5" cy="87.5" r="75.5"></circle>
                <circle id="Oval-Copy-2" stroke="#979797" fill="#D8D8D8" opacity="0.09" cx="87" cy="87" r="62"></circle>
                <g id="Group-9" transform="translate(49.000000, 51.000000)">
                    <path d="M35.4899154,43 C29.7175238,42.9875239 25.0327968,38.3072016 25,32.5171121 C24.9675369,26.7550392 29.7252928,21.9937802 35.5101149,22 C41.2747374,22.0046755 45.9703411,26.6958932 46,32.4797567 C46.0293857,38.246499 41.270076,43.0124275 35.4899154,43" id="Fill-1" fill="#3DD3B6"></path>
                    <g id="Group-5">
                        <mask id="mask-2" fill="white">
                            <use xlink:href="#path-1"></use>
                        </mask>
                        <g id="Clip-4"></g>
                        <path d="M60.9481565,17.8142595 C62.2785913,17.7970162 63.4196348,18.9240973 63.4337217,20.2675027 C63.4478087,21.6171784 62.3427652,22.7411243 60.9904174,22.7505297 C59.6412,22.7615027 58.5142435,21.6579351 58.503287,20.3113946 C58.4907652,18.9820973 59.619287,17.8315027 60.9481565,17.8142595 M40.3765043,48.8160432 C38.7502435,49.3129622 37.0285043,49.5794486 35.2441565,49.5747459 C25.5304174,49.5528 17.6542435,41.6616649 17.643287,31.9427459 C17.6354609,22.2222595 25.6290261,14.2323676 35.2926783,14.3044757 C45.0439826,14.3781514 52.8998087,22.2724216 52.8622435,31.9599892 C52.8559826,33.4930703 52.6556348,34.9775568 52.2846783,36.3946378 C54.9486783,35.2487459 57.8834609,34.6123135 60.9685043,34.6123135 C64.3728522,34.6123135 67.5972,35.3866919 70.4756348,36.7677189 C70.4756348,30.459827 70.4787652,24.1535027 70.4776383,17.8471784 C70.4776383,17.5383676 70.4709391,17.2264216 70.419287,16.9254486 C69.771287,13.1679892 66.9445043,10.7821514 63.1332,10.7727459 C60.5725043,10.7664757 58.0133739,10.7727459 55.4526783,10.7711784 C53.6855478,10.7696108 52.607113,9.99366486 52.0467652,8.31636757 C51.4050261,6.4008 50.7742435,4.4820973 50.1340696,2.56339459 C49.6128522,0.998962162 48.4890261,0.182259459 46.8518087,0.1803 C39.1149391,0.1803 31.3765043,0.179124324 23.6396348,0.182259459 C22.0321565,0.182259459 20.891113,1.0020973 20.3824174,2.52420541 C19.7250261,4.49620541 19.0801565,6.47290811 18.4149391,8.44177297 C17.8968522,9.97485405 16.7761565,10.7680432 15.1545913,10.7696108 C12.575113,10.7743135 9.99406957,10.8307459 7.41615652,10.7586378 C3.22450435,10.6410703 -0.0468,14.1289081 -0.000342690221,18.2092865 C0.0925043478,26.1113946 0.0267652174,34.0166378 0.0283304348,41.9203135 C0.0283304348,44.5412865 0.017373913,47.163827 0.0361565217,49.7863676 C0.0486782609,51.2583135 0.551113043,52.5844757 1.43546087,53.7476108 C2.93806957,55.7258811 4.95093913,56.6460432 7.42867826,56.6444777 C16.6869391,56.6319351 25.9452,56.639773 35.2034609,56.639773 C36.4462435,56.639773 37.6890261,56.6382054 38.9302435,56.6382054 C38.9365043,53.8824216 39.4498957,51.2473405 40.3765043,48.8160432" id="Fill-3" fill="#3DD3B6" mask="url(#mask-2)"></path>
                    </g>
                    <g id="Group-8" transform="translate(45.000000, 40.000000)">
                        <mask id="mask-4" fill="white">
                            <use xlink:href="#path-3"></use>
                        </mask>
                        <g id="Clip-7"></g>
                        <path d="M17.7955091,25.8308286 C17.7955091,26.9182571 16.9547818,27.7746857 15.8853273,27.7731143 C14.8359636,27.7951143 14.0137818,26.9591143 14.0153273,25.8732571 L14.0354182,18.8741143 L12.0634182,18.9149714 L7.15041818,18.8929714 C6.78105455,18.8929714 6.38850909,18.7484 6.06087273,18.5818286 C5.58950909,18.1826857 5.28041818,17.6201143 5.28041818,16.9915429 C5.25878182,15.8821143 6.10105455,15.0272571 7.1906,15.0492571 L9.51496364,15.0696857 L11.4854182,15.0288286 L14.0137818,15.0492571 L14.0137818,10.4936857 L14.0354182,8.0894 C13.9936909,7.00197143 14.8560545,6.12511429 15.9255091,6.16754286 C16.5653273,6.14711429 17.0784182,6.50068571 17.4678727,6.98311429 C17.6935091,7.25497143 17.8171455,7.6714 17.7955091,8.06897143 L17.8171455,15.0288286 L24.6604182,15.0508286 C25.6881455,15.0508286 26.5288727,15.9072571 26.5288727,16.9506857 C26.5520545,18.0161143 25.6881455,18.8945429 24.6403273,18.8725429 L17.8171455,18.9149714 L17.7955091,25.8308286 Z M31.6907295,16.9711143 C31.6907295,10.3679714 27.7436,4.68254286 22.1336,2.2374 C20.1986909,1.4014 18.1262364,0.962971429 15.9255091,0.940971429 C14.0756,0.901685714 12.3493273,1.23482857 10.7451455,1.82254286 C4.56023636,4.01468571 0.121690909,9.94997143 0.161602106,16.9695429 C0.161602106,19.2292571 0.593054545,21.3381143 1.39514545,23.3244 C3.81996364,29.0082571 9.41141818,33.0216857 15.9270545,32.9997757 C16.1310545,32.9981143 16.4185091,32.9997757 16.7059636,32.9572571 C25.0498727,32.5408286 31.7092364,25.6014 31.6907295,16.9711143 L31.6907295,16.9711143 Z" id="Fill-6" fill="#3DD3B6" mask="url(#mask-4)"></path>
                    </g>
                </g>
            </g>
        </g>
    </g>
</svg>