<?xml version="1.0" encoding="UTF-8"?>
<svg width="48px" height="48px" viewBox="0 0 48 48" version="1.1" xmlns="http://www.w3.org/2000/svg" xmlns:xlink="http://www.w3.org/1999/xlink">
    <!-- Generator: Sketch 55.2 (78181) - https://sketchapp.com -->
    <title>xxhdpi/update</title>
    <desc>Created with Sketch.</desc>
    <defs>
        <polygon id="path-1" points="0 0 33 0 33 39 0 39"></polygon>
    </defs>
    <g id="切切" stroke="none" stroke-width="1" fill="none" fill-rule="evenodd">
        <g id="History-1" transform="translate(-534.000000, -537.000000)">
            <g id="Group-3-Copy-2" transform="translate(541.000000, 541.000000)">
                <mask id="mask-2" fill="white">
                    <use xlink:href="#path-1"></use>
                </mask>
                <g id="Clip-2"></g>
                <path d="M8.43544653,15.0900806 C4.59367873,20.8630306 4.41273389,25.5303362 8.01177081,29.7212969 C11.1639623,33.3922113 16.5283146,34.6267748 20.8467176,32.7192104 C26.1007378,30.398668 27.9741788,25.4680617 27.4887171,21.6573029 C26.803554,16.2929606 23.0930816,12.5717896 17.9891132,11.9053438 C18.9324537,12.8853468 19.7842184,13.7692069 20.6028834,14.6191984 C19.430052,15.825356 18.3145932,16.9736093 17.0049498,18.3207038 C13.920061,15.2594234 10.8660653,12.2276413 7.85068578,9.2351905 C11.0801098,6.05045368 14.1263823,3.04489246 17.2134777,0 C18.2792869,1.09253407 19.395849,2.23750978 20.8389944,3.71570837 C19.8184214,4.46300168 18.734959,5.25727395 17.6525999,6.05263875 C27.1135876,7.47293304 32.5342094,14.383211 32.9744349,21.8987529 C33.4124538,29.3968142 28.1738802,36.460047 20.9515332,38.4047577 C13.0848462,40.5231812 5.40903381,36.7899923 1.91701914,30.3342085 C-1.85634268,23.359471 0.356921594,15.1752982 4.94232854,11.1951966 C6.06992379,12.4527033 7.20634563,13.7189503 8.43544653,15.0900806" id="Fill-1" fill="#FFFFFF" mask="url(#mask-2)"></path>
            </g>
        </g>
    </g>
</svg>