<?xml version="1.0" encoding="UTF-8"?>
<svg width="46px" height="45px" viewBox="0 0 46 45" version="1.1" xmlns="http://www.w3.org/2000/svg" xmlns:xlink="http://www.w3.org/1999/xlink">
    <!-- Generator: Sketch 55.2 (78181) - https://sketchapp.com -->
    <title>hdpi/History 1</title>
    <desc>Created with Sketch.</desc>
    <defs>
        <polygon id="path-1" points="9.19876611e-06 0.000315945021 27.432 0.000315945021 27.432 36.5272252 9.19876611e-06 36.5272252"></polygon>
    </defs>
    <g id="切切" stroke="none" stroke-width="1" fill="none" fill-rule="evenodd">
        <g id="History-1" transform="translate(-84.000000, -15.000000)">
            <g id="back_white" transform="translate(93.000000, 19.000000)">
                <mask id="mask-2" fill="white">
                    <use xlink:href="#path-1"></use>
                </mask>
                <g id="Clip-2"></g>
                <path d="M26.2682,31.5093 L7.5712,18.2633 L26.2682,5.0173 C27.5092,4.1393 27.8052,2.4043 26.9262,1.1633 C26.0472,-0.0767 24.3122,-0.3727 23.0712,0.5063 L1.4832,15.8003 C1.1042,15.9963 0.7612,16.2713 0.4982,16.6413 C0.2452,17.0003 0.1002,17.4003 0.0372,17.8083 C0.0332,17.8303 0.0322,17.8523 0.0292,17.8733 C0.0122,18.0043 -0.0018,18.1333 9.19876611e-06,18.2633 C-0.0018,18.3943 0.0122,18.5243 0.0292,18.6543 C0.0322,18.6753 0.0332,18.6973 0.0372,18.7183 C0.1002,19.1273 0.2452,19.5273 0.4982,19.8863 C0.7612,20.2563 1.1042,20.5313 1.4832,20.7273 L23.0712,36.0213 C24.3122,36.9003 26.0472,36.6043 26.9262,35.3633 C27.8052,34.1233 27.5092,32.3883 26.2682,31.5093" id="Fill-1" fill="#FFFFFF" mask="url(#mask-2)"></path>
            </g>
        </g>
    </g>
</svg>