<?xml version="1.0" encoding="UTF-8"?>
<svg width="33px" height="33px" viewBox="0 0 33 33" version="1.1" xmlns="http://www.w3.org/2000/svg" xmlns:xlink="http://www.w3.org/1999/xlink">
    <!-- Generator: Sketch 55.2 (78181) - https://sketchapp.com -->
    <title>xhdpi/History 1</title>
    <desc>Created with Sketch.</desc>
    <defs>
        <polygon id="path-1" points="0 0.053 25.212 0.053 25.212 29.9999195 0 29.9999195"></polygon>
        <polygon id="path-3" points="0 30.9474 25.212 30.9474 25.212 1.0004 0 1.0004"></polygon>
    </defs>
    <g id="切切" stroke="none" stroke-width="1" fill="none" fill-rule="evenodd">
        <g id="History-1" transform="translate(-24.000000, -18.000000)">
            <g id="trash" transform="translate(27.000000, 19.000000)">
                <g id="Group-3" transform="translate(0.000000, 0.947400)">
                    <mask id="mask-2" fill="white">
                        <use xlink:href="#path-1"></use>
                    </mask>
                    <g id="Clip-2"></g>
                    <path d="M15.964,4.6299 C16.153,3.1829 15.485,2.3849 14.097,2.3749 C13.086,2.3669 12.076,2.3619 11.065,2.3759 C9.743,2.3939 9.018,3.2989 9.276,4.6299 L15.964,4.6299 Z M4.551,9.2859 L4.551,10.0309 C4.551,15.4129 4.55,20.7959 4.551,26.1779 C4.551,27.3299 4.931,27.7119 6.092,27.7129 C10.439,27.7159 14.785,27.7159 19.132,27.7129 C20.322,27.7119 20.695,27.3299 20.696,26.1239 C20.697,20.7639 20.696,15.4039 20.696,10.0439 L20.696,9.2859 L4.551,9.2859 Z M15.213,0.0529 C16.574,0.5489 17.691,1.3279 18.151,2.7739 C18.333,3.3449 18.38,3.9599 18.509,4.6659 L20.98,4.6659 C21.566,4.6659 22.151,4.6589 22.736,4.6679 C23.719,4.6819 24.123,5.0929 24.131,6.0739 C24.134,6.3399 24.132,6.6069 24.132,6.9209 C24.504,6.9439 24.83,6.9659 25.213,6.9899 L25.213,9.2339 L22.952,9.2339 L22.952,10.0709 C22.952,15.4739 22.906,20.8779 22.977,26.2799 C23.002,28.1269 21.664,30.0069 19.317,29.9999195 C14.837,29.9859 10.356,30.0149 5.876,29.9869 C3.651,29.9739 2.264,28.5059 2.261,26.2369 C2.253,20.8799 2.258,15.5209 2.258,10.1629 L2.258,9.2729 L0,9.2729 L0,7.0069 C0.355,6.9779 0.701,6.9479 1.12,6.9129 C1.12,6.6029 1.115,6.3159 1.121,6.0279 C1.143,5.0719 1.533,4.6759 2.484,4.6679 C3.857,4.6569 5.231,4.6599 6.604,4.6549 C6.646,4.6549 6.689,4.6329 6.787,4.6049 C6.817,4.2529 6.817,3.8749 6.883,3.5089 C7.213,1.6829 8.369,0.6089 10.078,0.0529 L15.213,0.0529 Z" id="Fill-1" fill="#5A828E" mask="url(#mask-2)"></path>
                </g>
                <mask id="mask-4" fill="white">
                    <use xlink:href="#path-3"></use>
                </mask>
                <g id="Clip-5"></g>
                <polygon id="Fill-4" fill="#5A828E" mask="url(#mask-4)" points="6.887 26.2494 9.1 26.2494 9.1 12.5444 6.887 12.5444"></polygon>
                <polygon id="Fill-6" fill="#5A828E" mask="url(#mask-4)" points="11.533 26.2754 13.694 26.2754 13.694 12.5464 11.533 12.5464"></polygon>
                <polygon id="Fill-7" fill="#5A828E" mask="url(#mask-4)" points="16.125 26.2564 18.301 26.2564 18.301 12.5364 16.125 12.5364"></polygon>
            </g>
        </g>
    </g>
</svg>