<?xml version="1.0" encoding="UTF-8"?>
<svg width="50px" height="50px" viewBox="0 0 50 50" version="1.1" xmlns="http://www.w3.org/2000/svg" xmlns:xlink="http://www.w3.org/1999/xlink">
    <!-- Generator: Sketch 55.2 (78181) - https://sketchapp.com -->
    <title>xxhdpi/History 1</title>
    <desc>Created with Sketch.</desc>
    <defs>
        <polygon id="path-1" points="0.000185714286 0.211714286 12.4790714 0.211714286 12.4790714 12.6908786 0.000185714286 12.6908786"></polygon>
        <polygon id="path-3" points="0.000185714286 0.366414286 12.4790714 0.366414286 12.4790714 12.8454857 0.000185714286 12.8454857"></polygon>
        <polygon id="path-5" points="0.000185714286 0.520557143 12.4790714 0.520557143 12.4790714 12.9996286 0.000185714286 12.9996286"></polygon>
    </defs>
    <g id="切切" stroke="none" stroke-width="1" fill="none" fill-rule="evenodd">
        <g id="History-1" transform="translate(-135.000000, -13.000000)">
            <g id="option" transform="translate(153.000000, 15.000000)">
                <g id="Group-3" transform="translate(0.428571, 0.000000)">
                    <mask id="mask-2" fill="white">
                        <use xlink:href="#path-1"></use>
                    </mask>
                    <g id="Clip-2"></g>
                    <path d="M12.4792571,6.45087857 C12.4792571,9.89680714 9.68518571,12.6908786 6.23925714,12.6908786 C2.79332857,12.6908786 0.000185714286,9.89680714 0.000185714286,6.45087857 C0.000185714286,3.00495 2.79332857,0.210878571 6.23925714,0.210878571 C9.68518571,0.210878571 12.4792571,3.00495 12.4792571,6.45087857" id="Fill-1" fill="#FFFFFF" mask="url(#mask-2)"></path>
                </g>
                <g id="Group-6" transform="translate(0.428571, 15.000000)">
                    <mask id="mask-4" fill="white">
                        <use xlink:href="#path-3"></use>
                    </mask>
                    <g id="Clip-5"></g>
                    <path d="M12.4792571,6.60548571 C12.4792571,10.0514143 9.68518571,12.8454857 6.23925714,12.8454857 C2.79332857,12.8454857 0.000185714286,10.0514143 0.000185714286,6.60548571 C0.000185714286,3.15955714 2.79332857,0.366414286 6.23925714,0.366414286 C9.68518571,0.366414286 12.4792571,3.15955714 12.4792571,6.60548571" id="Fill-4" fill="#FFFFFF" mask="url(#mask-4)"></path>
                </g>
                <g id="Group-9" transform="translate(0.428571, 31.000000)">
                    <mask id="mask-6" fill="white">
                        <use xlink:href="#path-5"></use>
                    </mask>
                    <g id="Clip-8"></g>
                    <path d="M12.4792571,6.76055714 C12.4792571,10.2064857 9.68518571,12.9996286 6.23925714,12.9996286 C2.79332857,12.9996286 0.000185714286,10.2064857 0.000185714286,6.76055714 C0.000185714286,3.31462857 2.79332857,0.520557143 6.23925714,0.520557143 C9.68518571,0.520557143 12.4792571,3.31462857 12.4792571,6.76055714" id="Fill-7" fill="#FFFFFF" mask="url(#mask-6)"></path>
                </g>
            </g>
        </g>
    </g>
</svg>