<?xml version="1.0" encoding="UTF-8"?>
<svg width="48px" height="48px" viewBox="0 0 48 48" version="1.1" xmlns="http://www.w3.org/2000/svg" xmlns:xlink="http://www.w3.org/1999/xlink">
    <!-- Generator: Sketch 55.2 (78181) - https://sketchapp.com -->
    <title>xxhdpi/edit</title>
    <desc>Created with Sketch.</desc>
    <defs>
        <polygon id="path-1" points="0.0001 0.258473019 28.7265982 0.258473019 28.7265982 29 0.0001 29"></polygon>
        <polygon id="path-3" points="0.295046081 0.107 26.9268 0.107 26.9268 26.7956905 0.295046081 26.7956905"></polygon>
    </defs>
    <g id="切切" stroke="none" stroke-width="1" fill="none" fill-rule="evenodd">
        <g id="History-1" transform="translate(-80.000000, -666.000000)">
            <g id="edit-copy" transform="translate(86.000000, 673.000000)">
                <g id="Group-3" transform="translate(0.000000, 4.893100)">
                    <mask id="mask-2" fill="white">
                        <use xlink:href="#path-1"></use>
                    </mask>
                    <g id="Clip-2"></g>
                    <path d="M0.0001,2.7786 C0.7961,0.7596 1.5361,0.2596 3.7301,0.2596 C9.1841,0.258473019 14.6381,0.2546 20.0921,0.2716 C20.4161,0.2726 20.7401,0.4506 21.0641,0.5466 C20.9161,0.8486 20.8021,1.1746 20.6151,1.4506 C19.5601,3.0156 18.0901,3.3856 16.2341,3.3216 C12.1801,3.1806 8.1191,3.2786 4.0611,3.2786 L3.1521,3.2786 L3.1521,25.8596 L25.6421,25.8596 L25.6421,24.7806 C25.6421,23.4366 25.8161,22.0646 25.6021,20.7556 C25.2641,18.6846 26.3821,17.4696 27.7621,16.3236 C27.9181,16.1946 28.2401,16.0746 28.3681,16.1486 C28.5401,16.2506 28.6921,16.5446 28.6941,16.7566 C28.7121,19.8836 28.7651,23.0126 28.6781,26.1386 C28.6331,27.7326 27.5351,28.5906 26.0661,29.0006 L2.6371,29.0006 C1.2901,28.6706 0.4371,27.8146 0.0001,26.5176 L0.0001,2.7786 Z" id="Fill-1" fill="#3DD3B6" mask="url(#mask-2)"></path>
                </g>
                <g id="Group-6" transform="translate(10.000000, 0.893100)">
                    <mask id="mask-4" fill="white">
                        <use xlink:href="#path-3"></use>
                    </mask>
                    <g id="Clip-5"></g>
                    <path d="M21.7618,9.0794 C22.3658,8.4634 22.9628,7.8544 23.5598,7.2454 C23.8998,6.8984 23.9678,6.5114 23.6188,6.1514 C22.7178,5.2254 21.8128,4.3014 20.8638,3.4254 C20.6998,3.2724 20.1928,3.2274 20.0508,3.3584 C19.3408,4.0134 18.6988,4.7424 18.0818,5.3934 C19.2938,6.6074 20.4948,7.8114 21.7618,9.0794 L21.7618,9.0794 Z M3.3818,23.6944 C4.6958,23.5474 5.8998,23.4374 7.0938,23.2604 C7.4168,23.2114 7.7708,23.0184 8.0058,22.7854 C11.6698,19.1454 15.3168,15.4884 18.9668,11.8344 C19.1428,11.6584 19.3028,11.4674 19.3658,11.3974 C18.1178,10.1214 16.9178,8.8924 15.7078,7.6554 C15.6778,7.6784 15.6098,7.7164 15.5568,7.7694 C11.7588,11.5674 7.9598,15.3654 4.1678,19.1714 C4.0148,19.3254 3.8578,19.5424 3.8318,19.7464 C3.6658,21.0204 3.5368,22.2994 3.3818,23.6944 L3.3818,23.6944 Z M26.9268,7.2444 C26.6418,8.3914 25.9148,9.2334 25.0978,10.0474 C19.8788,15.2434 14.6858,20.4634 9.4638,25.6554 C9.1858,25.9324 8.7408,26.1314 8.3488,26.1874 C6.7148,26.4204 5.0718,26.5894 3.4298,26.7714 C1.4008,26.9994 0.0658,25.5984 0.3278,23.5754 C0.5338,21.9884 0.6568,20.3924 0.8708,18.8074 C0.9248,18.4084 1.0978,17.9454 1.3728,17.6694 C6.7788,12.2224 12.1948,6.7854 17.6518,1.3904 C18.2258,0.8224 19.0708,0.5274 19.7898,0.1064 L21.0318,0.1064 C23.6878,1.3814 25.6468,3.3514 26.9268,6.0034 L26.9268,7.2444 Z" id="Fill-4" fill="#3DD3B6" mask="url(#mask-4)"></path>
                </g>
            </g>
        </g>
    </g>
</svg>