<?xml version="1.0" encoding="UTF-8"?>
<svg width="48px" height="48px" viewBox="0 0 48 48" version="1.1" xmlns="http://www.w3.org/2000/svg" xmlns:xlink="http://www.w3.org/1999/xlink">
    <!-- Generator: Sketch 55.2 (78181) - https://sketchapp.com -->
    <title>hdpi/sign_out</title>
    <desc>Created with Sketch.</desc>
    <defs>
        <polygon id="path-1" points="5.58488939e-05 0.669083333 21.7927991 0.669083333 21.7927991 30.9998143 5.58488939e-05 30.9998143"></polygon>
    </defs>
    <g id="切切" stroke="none" stroke-width="1" fill="none" fill-rule="evenodd">
        <g id="History-1" transform="translate(-602.000000, -635.000000)">
            <g id="Group-6" transform="translate(612.000000, 643.000000)">
                <g id="Group-3">
                    <mask id="mask-2" fill="white">
                        <use xlink:href="#path-1"></use>
                    </mask>
                    <g id="Clip-2"></g>
                    <path d="M21.792408,10.4422639 L19.602088,10.4422639 L19.602088,2.86448611 L5.740328,2.86448611 C5.727128,2.90409722 5.713048,2.94456944 5.698968,2.98418056 C7.360408,3.90901389 9.006888,4.85968056 10.687688,5.74834722 C11.372328,6.11001389 11.667128,6.55176389 11.662728,7.33623611 C11.634568,12.5571528 11.650408,17.7789306 11.653048,23.0007083 L11.653048,23.6095139 L19.555448,23.6095139 L19.555448,17.7918472 L21.730808,17.7918472 C21.748408,17.9520139 21.788888,18.146625 21.789768,18.3420972 C21.792408,20.3837917 21.794168,22.4263472 21.787128,24.4680417 C21.783608,25.4609028 21.416648,25.8277361 20.409048,25.8303194 C17.532328,25.8372083 14.654728,25.8329028 11.646888,25.8329028 C11.646888,27.105625 11.649528,28.3335694 11.644248,29.562375 C11.643368,29.8189861 11.662728,30.0919583 11.581768,30.3287639 C11.346808,31.019375 10.604088,31.2019306 9.798888,30.7593194 C7.292648,29.3798194 4.865608,27.8410139 2.271368,26.6449306 C0.415448,25.7898472 -0.032472,24.6402639 0.001848,22.7311806 C0.126808,15.8577917 0.050248,8.98095833 0.050248,2.104125 C0.051128,1.019125 0.404888,0.670375 1.508408,0.669513889 C7.768728,0.668652778 14.029928,0.667791667 20.291128,0.668652778 C21.449208,0.668652778 21.790648,1.00276389 21.792408,2.13856944 C21.793288,4.87690278 21.792408,7.61523611 21.792408,10.4422639" id="Fill-1" fill="#3DD3B6" mask="url(#mask-2)"></path>
                </g>
                <path d="M23.5300991,15.5054863 L20.3469093,15.5054863 C19.5195644,15.5054863 18.6931081,15.5098871 17.8657631,15.5046062 C16.6411859,15.4958046 15.9800208,14.9430664 16.0004601,13.9511302 C16.019122,12.9935201 16.6838417,12.4566248 17.8515445,12.4557446 C19.4253661,12.4548644 21.0000764,12.4539843 22.5738981,12.4539843 L23.5300991,12.4539843 C23.5300991,11.5262995 23.5052166,10.6875105 23.5443177,9.85224215 C23.5576477,9.56619134 23.6633985,9.12083223 23.8500177,9.04425863 C24.1041752,8.94128033 24.5431746,9.02841581 24.7857795,9.19828599 C26.7248415,10.5528466 28.6399096,11.9408531 30.5523118,13.3323803 C31.1530478,13.769818 31.1503818,14.2098962 30.5372045,14.6570156 C28.625691,16.0485428 26.7079569,17.4321485 24.7715609,18.7902298 C24.5458406,18.9486579 24.0997319,19.0692393 23.9219994,18.954819 C23.7007224,18.8131138 23.5638683,18.4126427 23.5469837,18.1151499 C23.4981073,17.2798815 23.5300991,16.4402124 23.5300991,15.5054863" id="Fill-4" fill="#3DD3B6"></path>
            </g>
        </g>
    </g>
</svg>